# Blender v2.92.0 OBJ File: ''
# www.blender.org
mtllib player2.mtl
o entity.player.torso
v -0.234375 0.703125 -0.117187
v 0.234375 0.703125 0.117188
v 0.234375 0.703125 -0.117187
v -0.234375 -0.000000 0.117188
v 0.234375 -0.000000 0.117188
v -0.234375 0.703125 0.117188
v -0.234375 0.000000 -0.117188
v 0.234375 0.000000 -0.117188
vt 0.312500 0.750000
vt 0.437500 0.687500
vt 0.437500 0.750000
vt 0.312500 0.500000
vt 0.437500 0.500000
vt 0.312500 0.687500
vt 0.250000 0.500000
vt 0.437500 0.750000
vt 0.562500 0.687500
vt 0.562500 0.750000
vt 0.500000 0.687500
vt 0.500000 0.500000
vt 0.625000 0.687500
vt 0.625000 0.500000
vt 0.250000 0.687500
vt 0.437500 0.687500
vn 0.0000 1.0000 0.0000
vn 0.0000 -0.0000 1.0000
vn -1.0000 0.0000 0.0000
vn 0.0000 -1.0000 -0.0000
vn 1.0000 -0.0000 0.0000
vn 0.0000 0.0000 -1.0000
usemtl Material.001
s 1
f 1/1/1 2/2/1 3/3/1
f 2/2/2 4/4/2 5/5/2
f 6/6/3 7/7/3 4/4/3
f 8/8/4 4/9/4 7/10/4
f 3/11/5 5/5/5 8/12/5
f 1/13/6 8/12/6 7/14/6
f 1/1/1 6/6/1 2/2/1
f 2/2/2 6/6/2 4/4/2
f 6/6/3 1/15/3 7/7/3
f 8/8/4 5/16/4 4/9/4
f 3/11/5 2/2/5 5/5/5
f 1/13/6 3/11/6 8/12/6
o entity.player.head
v -0.234375 0.468750 0.234375
v -0.234375 0.000000 -0.234375
v -0.234375 -0.000000 0.234375
v -0.234375 0.468750 -0.234375
v 0.234375 0.000000 -0.234375
v 0.234375 0.468750 -0.234375
v 0.234375 -0.000000 0.234375
v 0.234375 0.468750 0.234375
v 0.257812 -0.023437 -0.257812
v -0.257812 -0.023438 0.257812
v -0.257812 -0.023437 -0.257812
v -0.257812 0.492187 -0.257812
v -0.257812 0.492187 0.257813
v 0.257812 0.492187 0.257813
v 0.257812 -0.023438 0.257812
v 0.257812 0.492187 -0.257812
vt 0.125000 0.875000
vt 0.000000 0.750000
vt 0.125000 0.750000
vt 0.500000 0.875000
vt 0.375000 0.750000
vt 0.500000 0.750000
vt 0.375000 0.875000
vt 0.250000 0.750000
vt 0.250000 0.875000
vt 0.250000 1.000000
vt 0.375000 0.875000
vt 0.375000 1.000000
vt 0.125000 1.000000
vt 0.250000 1.000000
vt 0.000000 0.875000
vt 0.250000 0.875000
vt 0.750000 1.000000
vt 0.875000 0.875000
vt 0.875000 1.000000
vt 1.000000 0.875000
vt 0.875000 0.750000
vt 1.000000 0.750000
vt 0.625000 0.875000
vt 0.500000 0.750000
vt 0.625000 0.750000
vt 0.750000 0.875000
vt 0.750000 0.750000
vt 0.625000 1.000000
vt 0.750000 1.000000
vt 0.875000 0.875000
vt 0.750000 0.875000
vt 0.500000 0.875000
vn -1.0000 -0.0000 0.0000
vn 0.0000 0.0000 -1.0000
vn 1.0000 0.0000 0.0000
vn 0.0000 -0.0000 1.0000
vn 0.0000 -1.0000 -0.0000
vn 0.0000 1.0000 0.0000
usemtl Material.001
s 1
f 9/17/7 10/18/7 11/19/7
f 12/20/8 13/21/8 10/22/8
f 14/23/9 15/24/9 13/21/9
f 16/25/10 11/19/10 15/24/10
f 13/26/11 11/27/11 10/28/11
f 12/29/12 16/25/12 14/30/12
f 9/17/7 12/31/7 10/18/7
f 12/20/8 14/23/8 13/21/8
f 14/23/9 16/25/9 15/24/9
f 16/25/10 9/17/10 11/19/10
f 13/26/11 15/32/11 11/27/11
f 12/29/12 9/17/12 16/25/12
f 17/33/11 18/34/11 19/35/11
f 20/36/8 17/37/8 19/38/8
f 21/39/7 19/40/7 18/41/7
f 22/42/10 18/41/10 23/43/10
f 20/44/12 22/42/12 24/45/12
f 24/46/9 23/43/9 17/37/9
f 17/33/11 23/47/11 18/34/11
f 20/36/8 24/46/8 17/37/8
f 21/39/7 20/48/7 19/40/7
f 22/42/10 21/39/10 18/41/10
f 20/44/12 21/39/12 22/42/12
f 24/46/9 22/42/9 23/43/9
o entity.player.left_arm
v -0.087891 0.117187 0.117188
v -0.087891 -0.585938 -0.117188
v -0.087891 -0.585938 0.117187
v -0.087891 0.117188 -0.117187
v 0.087891 -0.585938 -0.117188
v 0.087891 0.117188 -0.117187
v 0.087891 -0.585938 0.117187
v 0.087891 0.117187 0.117188
vt 0.562500 0.187500
vt 0.500000 -0.000000
vt 0.562500 -0.000000
vt 0.718750 0.187500
vt 0.671875 -0.000000
vt 0.718750 -0.000000
vt 0.671875 0.187500
vt 0.609375 -0.000000
vt 0.609375 0.187500
vt 0.609375 0.250000
vt 0.656250 0.187500
vt 0.656250 0.250000
vt 0.562500 0.250000
vt 0.609375 0.250000
vt 0.500000 0.187500
vt 0.609375 0.187500
vn -1.0000 -0.0000 0.0000
vn 0.0000 0.0000 -1.0000
vn 1.0000 0.0000 0.0000
vn 0.0000 -0.0000 1.0000
vn 0.0000 -1.0000 0.0000
vn 0.0000 1.0000 0.0000
usemtl Material.001
s 1
f 25/49/13 26/50/13 27/51/13
f 28/52/14 29/53/14 26/54/14
f 30/55/15 31/56/15 29/53/15
f 32/57/16 27/51/16 31/56/16
f 29/58/17 27/59/17 26/60/17
f 28/61/18 32/57/18 30/62/18
f 25/49/13 28/63/13 26/50/13
f 28/52/14 30/55/14 29/53/14
f 30/55/15 32/57/15 31/56/15
f 32/57/16 25/49/16 27/51/16
f 29/58/17 31/64/17 27/59/17
f 28/61/18 25/49/18 32/57/18
o entity.player.left_leg
v -0.117188 -0.000000 0.117188
v -0.117188 -0.703125 -0.117188
v -0.117188 -0.703125 0.117187
v -0.117188 0.000000 -0.117188
v 0.117188 -0.703125 -0.117188
v 0.117188 0.000000 -0.117188
v 0.117188 -0.703125 0.117187
v 0.117188 -0.000000 0.117188
vt 0.312500 0.187500
vt 0.250000 0.000000
vt 0.312500 0.000000
vt 0.500000 0.187500
vt 0.437500 0.000000
vt 0.500000 0.000000
vt 0.437500 0.187500
vt 0.375000 0.000000
vt 0.375000 0.187500
vt 0.437500 0.187500
vt 0.375000 0.250000
vt 0.375000 0.187500
vt 0.375000 0.187500
vt 0.312500 0.250000
vt 0.312500 0.187500
vt 0.250000 0.187500
vt 0.437500 0.250000
vt 0.375000 0.250000
vn -1.0000 0.0000 0.0000
vn 0.0000 0.0000 -1.0000
vn 1.0000 -0.0000 0.0000
vn 0.0000 -0.0000 1.0000
vn 0.0000 -1.0000 0.0000
vn 0.0000 1.0000 0.0000
usemtl Material.001
s 1
f 33/65/19 34/66/19 35/67/19
f 36/68/20 37/69/20 34/70/20
f 38/71/21 39/72/21 37/69/21
f 40/73/22 35/67/22 39/72/22
f 37/74/23 35/75/23 34/76/23
f 36/77/24 40/78/24 38/79/24
f 33/65/19 36/80/19 34/66/19
f 36/68/20 38/71/20 37/69/20
f 38/71/21 40/73/21 39/72/21
f 40/73/22 33/65/22 35/67/22
f 37/74/23 39/81/23 35/75/23
f 36/77/24 33/82/24 40/78/24
o entity.player.right_leg
v -0.117188 -0.000000 0.117188
v -0.117188 -0.703125 -0.117188
v -0.117188 -0.703125 0.117187
v -0.117188 0.000000 -0.117188
v 0.117188 -0.703125 -0.117188
v 0.117188 0.000000 -0.117188
v 0.117188 -0.703125 0.117187
v 0.117188 -0.000000 0.117188
vt 0.062500 0.687500
vt -0.000000 0.500000
vt 0.062500 0.500000
vt 0.250000 0.687500
vt 0.187500 0.500000
vt 0.250000 0.500000
vt 0.187500 0.687500
vt 0.125000 0.500000
vt 0.125000 0.687500
vt 0.187500 0.687500
vt 0.125000 0.750000
vt 0.125000 0.687500
vt 0.125000 0.687500
vt 0.062500 0.750000
vt 0.062500 0.687500
vt -0.000000 0.687500
vt 0.187500 0.750000
vt 0.125000 0.750000
vn -1.0000 0.0000 0.0000
vn 0.0000 0.0000 -1.0000
vn 1.0000 -0.0000 0.0000
vn 0.0000 -0.0000 1.0000
vn 0.0000 -1.0000 0.0000
vn 0.0000 1.0000 0.0000
usemtl Material.001
s 1
f 41/83/25 42/84/25 43/85/25
f 44/86/26 45/87/26 42/88/26
f 46/89/27 47/90/27 45/87/27
f 48/91/28 43/85/28 47/90/28
f 45/92/29 43/93/29 42/94/29
f 44/95/30 48/96/30 46/97/30
f 41/83/25 44/98/25 42/84/25
f 44/86/26 46/89/26 45/87/26
f 46/89/27 48/91/27 47/90/27
f 48/91/28 41/83/28 43/85/28
f 45/92/29 47/99/29 43/93/29
f 44/95/30 41/100/30 48/96/30
o entity.player.right_arm
v -0.087891 0.117187 0.117188
v -0.087891 -0.585938 -0.117188
v -0.087891 -0.585938 0.117187
v -0.087891 0.117188 -0.117187
v 0.087891 -0.585938 -0.117188
v 0.087891 0.117188 -0.117187
v 0.087891 -0.585938 0.117187
v 0.087891 0.117187 0.117188
vt 0.687500 0.687500
vt 0.625000 0.500000
vt 0.687500 0.500000
vt 0.843750 0.687500
vt 0.796875 0.500000
vt 0.843750 0.500000
vt 0.796875 0.687500
vt 0.734375 0.500000
vt 0.734375 0.687500
vt 0.734375 0.750000
vt 0.781250 0.687500
vt 0.781250 0.750000
vt 0.687500 0.750000
vt 0.734375 0.750000
vt 0.625000 0.687500
vt 0.734375 0.687500
vn -1.0000 -0.0000 0.0000
vn 0.0000 0.0000 -1.0000
vn 1.0000 0.0000 0.0000
vn 0.0000 -0.0000 1.0000
vn 0.0000 -1.0000 0.0000
vn 0.0000 1.0000 0.0000
usemtl Material.001
s 1
f 49/101/31 50/102/31 51/103/31
f 52/104/32 53/105/32 50/106/32
f 54/107/33 55/108/33 53/105/33
f 56/109/34 51/103/34 55/108/34
f 53/110/35 51/111/35 50/112/35
f 52/113/36 56/109/36 54/114/36
f 49/101/31 52/115/31 50/102/31
f 52/104/32 54/107/32 53/105/32
f 54/107/33 56/109/33 55/108/33
f 56/109/34 49/101/34 51/103/34
f 53/110/35 55/116/35 51/111/35
f 52/113/36 49/101/36 56/109/36
