# Blender v2.93.1 OBJ File: ''
# www.blender.org
mtllib repeater.mtl
o down
v 0.500000 -0.500000 -0.500000
v -0.500000 -0.500000 0.500000
v -0.500000 -0.500000 -0.500000
v 0.500000 -0.500000 0.500000
vt 0.888889 0.000000
vt 0.444444 1.000000
vt 0.444444 0.000000
vt 0.888889 1.000000
vn 0.0000 -1.0000 -0.0000
usemtl Material.001
s 1
f 1/1/1 2/2/1 3/3/1
f 1/1/1 4/4/1 2/2/1
o center
v -0.500000 -0.375000 -0.500000
v 0.500000 -0.375000 0.500000
v 0.500000 -0.375000 -0.500000
v -0.500000 -0.375000 0.500000
v -0.062500 -0.375000 0.123750
v -0.062500 -0.062500 -0.001250
v -0.062500 -0.375000 -0.001250
v 0.062500 -0.375000 0.123750
v -0.062500 -0.062500 0.123750
v -0.062500 -0.375000 0.123750
v -0.062500 -0.062500 -0.001250
v -0.062500 -0.062500 0.123750
v 0.062500 -0.062500 0.123750
v 0.062500 -0.062500 -0.001250
v 0.062500 -0.375000 -0.001250
v 0.062500 -0.062500 0.123750
v 0.062500 -0.375000 0.123750
v -0.062500 -0.375000 -0.001250
v 0.062500 -0.062500 -0.001250
v 0.062500 -0.375000 -0.001250
v -0.062500 -0.375000 0.250000
v 0.062500 -0.062500 0.250000
v 0.062500 -0.375000 0.250000
v 0.062500 -0.375000 0.250000
v 0.062500 -0.062500 0.375000
v 0.062500 -0.375000 0.375000
v -0.062500 -0.062500 0.250000
v 0.062500 -0.062500 0.375000
v 0.062500 -0.062500 0.250000
v -0.062500 -0.062500 0.375000
v 0.062500 -0.375000 0.375000
v -0.062500 -0.062500 0.375000
v -0.062500 -0.375000 0.375000
v -0.062500 -0.375000 0.375000
v -0.062500 -0.062500 0.250000
v -0.062500 -0.375000 0.250000
v -0.062500 -0.062500 0.123750
v 0.062500 -0.062500 0.123750
v 0.062500 -0.062500 -0.001250
v -0.062500 -0.062500 -0.001250
v -0.062500 -0.062500 0.250000
v 0.062500 -0.062500 0.250000
v 0.062500 -0.062500 0.375000
v -0.062500 -0.062500 0.375000
vt 0.444444 -0.000000
vt -0.000000 1.000000
vt -0.000000 0.000000
vt 0.444444 1.000000
vt 0.972222 0.312500
vt 0.916667 0.625000
vt 0.916667 0.312500
vt 0.972222 0.312500
vt 0.916667 0.625000
vt 0.916667 0.312500
vt 0.972222 0.500000
vt 0.972222 0.625000
vt 0.916667 0.625000
vt 0.916667 0.500000
vt 0.972222 0.312500
vt 0.916667 0.625000
vt 0.916667 0.312500
vt 0.972222 0.312500
vt 0.916667 0.625000
vt 0.916667 0.312500
vt 0.972222 0.312500
vt 0.916667 0.625000
vt 0.916667 0.312500
vt 0.972222 0.312500
vt 0.916667 0.625000
vt 0.916667 0.312500
vt 0.972222 0.500000
vt 0.916667 0.625000
vt 0.916667 0.500000
vt 0.972222 0.625000
vt 0.972222 0.312500
vt 0.916667 0.625000
vt 0.916667 0.312500
vt 0.972222 0.312500
vt 0.916667 0.625000
vt 0.916667 0.312500
vt 0.972222 0.625000
vt 0.972222 0.625000
vt 0.972222 0.625000
vt 0.972222 0.625000
vt 0.972222 0.625000
vt 0.972222 0.625000
vt 0.972222 0.625000
vt 0.972222 0.625000
vn 0.0000 1.0000 0.0000
vn -1.0000 0.0000 0.0000
vn 0.0000 -0.0000 1.0000
vn 1.0000 0.0000 0.0000
vn 0.0000 0.0000 -1.0000
usemtl Material.001
s 1
f 5/5/2 6/6/2 7/7/2
f 5/5/2 8/8/2 6/6/2
f 9/9/3 10/10/3 11/11/3
f 12/12/4 13/13/4 14/14/4
f 15/15/2 16/16/2 17/17/2
f 15/15/2 17/17/2 18/18/2
f 19/19/5 20/20/5 21/21/5
f 22/22/6 23/23/6 24/24/6
f 25/25/6 26/26/6 27/27/6
f 28/28/5 29/29/5 30/30/5
f 31/31/2 32/32/2 33/33/2
f 31/31/2 34/34/2 32/32/2
f 35/35/4 36/36/4 37/37/4
f 38/38/3 39/39/3 40/40/3
f 9/9/3 41/41/3 10/10/3
f 12/12/4 42/42/4 13/13/4
f 19/19/5 43/43/5 20/20/5
f 22/22/6 44/44/6 23/23/6
f 25/25/6 45/45/6 26/26/6
f 28/28/5 46/46/5 29/29/5
f 35/35/4 47/47/4 36/36/4
f 38/38/3 48/48/3 39/39/3
o east
v 0.500000 -0.375000 -0.500000
v 0.500000 -0.500000 0.500000
v 0.500000 -0.500000 -0.500000
v 0.500000 -0.375000 0.500000
vt 0.833333 0.000000
vt 0.888889 1.000000
vt 0.888889 0.000000
vt 0.833333 1.000000
vn 1.0000 0.0000 0.0000
usemtl Material.001
s 1
f 49/49/7 50/50/7 51/51/7
f 49/49/7 52/52/7 50/50/7
o south
v 0.500000 -0.375000 0.500000
v -0.500000 -0.500000 0.500000
v 0.500000 -0.500000 0.500000
v -0.500000 -0.375000 0.500000
vt 0.833333 -0.000000
vt 0.888889 1.000000
vt 0.888889 0.000000
vt 0.833333 1.000000
vn 0.0000 0.0000 1.0000
usemtl Material.001
s 1
f 53/53/8 54/54/8 55/55/8
f 53/53/8 56/56/8 54/54/8
o west
v -0.500000 -0.375000 0.500000
v -0.500000 -0.500000 -0.500000
v -0.500000 -0.500000 0.500000
v -0.500000 -0.375000 -0.500000
vt 0.833333 0.000000
vt 0.888889 1.000000
vt 0.888889 0.000000
vt 0.833333 1.000000
vn -1.0000 0.0000 0.0000
usemtl Material.001
s 1
f 57/57/9 58/58/9 59/59/9
f 57/57/9 60/60/9 58/58/9
o north
v -0.500000 -0.375000 -0.500000
v 0.500000 -0.500000 -0.500000
v -0.500000 -0.500000 -0.500000
v 0.500000 -0.375000 -0.500000
vt 0.833333 0.000000
vt 0.888889 1.000000
vt 0.888889 0.000000
vt 0.833333 1.000000
vn 0.0000 0.0000 -1.0000
usemtl Material.001
s 1
f 61/61/10 62/62/10 63/63/10
f 61/61/10 64/64/10 62/62/10
