# Blender v2.83.4 OBJ File: ''
# www.blender.org
mtllib torch_wall.mtl
o center
v 0.062500 0.286961 -0.327416
v 0.062500 -0.343100 -0.423717
v 0.062500 -0.300347 -0.541179
v 0.062500 0.244208 -0.209954
v -0.062500 -0.343100 -0.423717
v 0.062500 -0.343100 -0.423717
v 0.062500 -0.343100 -0.423717
v -0.062500 -0.300347 -0.541179
v 0.062500 -0.300347 -0.541179
v -0.062500 0.286961 -0.327416
v 0.062500 -0.300347 -0.541179
v -0.062500 -0.300347 -0.541179
v -0.062500 0.244208 -0.209954
v -0.062500 -0.300347 -0.541179
v -0.062500 -0.343100 -0.423717
v 0.062500 0.286961 -0.327416
v -0.062500 0.244208 -0.209954
v 0.062500 0.244208 -0.209954
v 0.062500 0.244208 -0.209954
v -0.062500 0.244208 -0.209954
v -0.062500 -0.343100 -0.423717
v 0.062500 0.286961 -0.327416
v -0.062500 0.286961 -0.327416
v -0.062500 0.286961 -0.327416
vt 0.562500 0.625000
vt 0.437500 0.000000
vt 0.562500 -0.000000
vt 0.562500 0.625000
vt 0.437500 0.000000
vt 0.562500 -0.000000
vt 0.562500 0.000000
vt 0.437500 0.125000
vt 0.437500 0.000000
vt 0.562500 0.625000
vt 0.437500 -0.000000
vt 0.562500 -0.000000
vt 0.562500 0.625000
vt 0.437500 -0.000000
vt 0.562500 0.000000
vt 0.562500 0.500000
vt 0.437500 0.625000
vt 0.437500 0.500000
vt 0.437500 0.625000
vt 0.437500 0.625000
vt 0.562500 0.125000
vt 0.437500 0.625000
vt 0.437500 0.625000
vt 0.562500 0.625000
vn 1.0000 0.0000 0.0000
vn 0.0000 -0.3420 0.9397
vn 0.0000 -0.9397 -0.3420
vn 0.0000 0.3420 -0.9397
vn -1.0000 -0.0000 -0.0000
vn 0.0000 0.9397 0.3420
usemtl Material.001
s 1
f 1/1/1 2/2/1 3/3/1
f 4/4/2 5/5/2 6/6/2
f 7/7/3 8/8/3 9/9/3
f 10/10/4 11/11/4 12/12/4
f 13/13/5 14/14/5 15/15/5
f 16/16/6 17/17/6 18/18/6
f 1/1/1 19/19/1 2/2/1
f 4/4/2 20/20/2 5/5/2
f 7/7/3 21/21/3 8/8/3
f 10/10/4 22/22/4 11/11/4
f 13/13/5 23/23/5 14/14/5
f 16/16/6 24/24/6 17/17/6
